{
	"name": "rules-cyclopedia-compendium",
	"title": "Rules Cyclopedia - OGL Compendium",
	"description": "RC weapons, armors, items and spells",
	"author": "Phillipe Gambôa",
	"version": "0.0.1",
	"minimumCoreVersion": "0.7.9",
	"compatibleCoreVersion": "0.8.2",
	"packs": [{
			"name": "adventuring-gear-table",
			"label": "Adventuring Gear Table",
			"path": "packs/adventuring-gear-table.db",
			"entity": "Item",
			"module": "rules-cyclopedia-compendium"
		},
                {
			"name": "weapons-table",
			"label": "Weapons Table",
			"path": "packs/weapons-table.db",
			"entity": "Item",
			"module": "rules-cyclopedia-compendium"
		},
		{
			"name": "armor-table",
			"label": "Armor Table",
			"path": "packs/armor-table.db",
			"entity": "Item",
			"module": "rules-cyclopedia-compendium"
		},
                {
			"name": "land-transportation-gear-table",
			"label": "Land Transportation Gear Table",
			"path": "packs/land-transportation-gear-table.db",
			"entity": "Item",
			"module": "rules-cyclopedia-compendium"
		},
                {
			"name": "riding-animals-costs-table",
			"label": "Riding Animals Costs Table",
			"path": "packs/riding-animals-costs-table-table.db",
			"entity": "Item",
			"module": "rules-cyclopedia-compendium"
		},
                {
			"name": "treasure",
			"label": "Treasure",
			"path": "packs/treasure.db",
			"entity": "Item",
			"module": "rules-cyclopedia-compendium"
                },
		{
			"name": "clerical-spells-list",
			"label": "Cleric Spells list",
			"path": "packs/clerical-spells-list.db",
			"entity": "Item",
			"module": "rules-cyclopedia-compendium"
                },        
                {
			"name": "magic-user-spells-list",
			"label": "Magic-user Spells list",
			"path": "packs/magic-user-spells-list.db",
			"entity": "Item",
			"module": "rules-cyclopedia-compendium"
		}
	],
        "url": "https://gitlab.com/phillgamboa/rules-cyclopedia-compendium",
        "manifest": "https://gitlab.com/phillgamboa/rules-cyclopedia-compendium/raw/master/module.json",
        "download": "https://gitlab.com/phillgamboa/rules-cyclopedia-compendium/-/archive/master/rules-cyclopedia-compendium-master.zip"
}
